{
  "project_info": {
    "project_number": "445079412892",
    "firebase_url": "https://hec2017fcm.firebaseio.com",
    "project_id": "hec2017fcm",
    "storage_bucket": "hec2017fcm.appspot.com"
  },
  "client": [
    {
      "client_info": {
        "mobilesdk_app_id": "1:445079412892:android:9b003d35a3bf1192",
        "android_client_info": {
          "package_name": "com.uzknmobile.conference"
        }
      },
      "oauth_client": [
        {
          "client_id": "445079412892-pk3vd9uf9djmefgu93kie1hatep3kisk.apps.googleusercontent.com",
          "client_type": 3
        }
      ],
      "api_key": [
        {
          "current_key": "AIzaSyAlGKbkVmF2SLxx_rl2AgWz0WGNI78rsVc"
        }
      ],
      "services": {
        "analytics_service": {
          "status": 1
        },
        "appinvite_service": {
          "status": 1,
          "other_platform_oauth_client": []
        },
        "ads_service": {
          "status": 2
        }
      }
    }
  ],
  "configuration_version": "1"
}